%YAML 1.1
%TAG !u! tag:unity3d.com,2011:
--- !u!1045 &1
EditorBuildSettings:
  m_ObjectHideFlags: 0
  serializedVersion: 2
  m_Scenes:
  - enabled: 1
    path: Assets/Scenes/MainMenu.unity
    guid: b5344bbbbdae38c428a1147737080f6b
  - enabled: 1
    path: Assets/Scenes/GamePlay.unity
    guid: 29c693f7c44809b41993d1e18210fb0a
  - enabled: 1
    path: Assets/Scenes/EndCredits.unity
    guid: 2091a2c9bca2e8e40a36dd453b1c1b00
